{
  "logoURI": "https://app.v2b.testnet.pulsex.com/images/tokens/0x89130eCf4044E3E12992FEcCF354F26F8e96D3C7.png",
  "chainId": 941,
  "address": "0x89130eCf4044E3E12992FEcCF354F26F8e96D3C7",
  "name": "Party",
  "symbol": "PRT",
  "decimals": 18,
  "extensions": {
    "description": "3rd Party Token"
  }
}
